building gtk-server from petbuild commit f5401c2
checksum passed
gtk-server-2.4.4/CREDITS
gtk-server-2.4.4/demo-gtk2/
gtk-server-2.4.4/demo-gtk2/calculator.ksh.stdin
gtk-server-2.4.4/demo-gtk2/calculator.ksh.fifo
gtk-server-2.4.4/demo-gtk2/calculator.bash.ipc
gtk-server-2.4.4/demo-gtk2/calculator.bash.fifo
gtk-server-2.4.4/demo-gtk2/webkit.bash
gtk-server-2.4.4/demo-gtk2/demo-udp.lsp
gtk-server-2.4.4/demo-gtk2/demo-tcp.lsp
gtk-server-2.4.4/demo-gtk2/poppler.ksh
gtk-server-2.4.4/demo-gtk2/poppler.bash
gtk-server-2.4.4/demo-gtk2/openglext.ksh
gtk-server-2.4.4/demo-gtk2/openglext.bash
gtk-server-2.4.4/demo-gtk2/openglarea.ksh
gtk-server-2.4.4/demo-gtk2/openglarea.bash
gtk-server-2.4.4/demo-gtk2/noconfig.ksh
gtk-server-2.4.4/demo-gtk2/noconfig.bash
gtk-server-2.4.4/demo-gtk2/mozilla.lsp
gtk-server-2.4.4/demo-gtk2/mozilla.ksh
gtk-server-2.4.4/demo-gtk2/mozilla.bash
gtk-server-2.4.4/demo-gtk2/lists.ksh
gtk-server-2.4.4/demo-gtk2/lists.bash
gtk-server-2.4.4/demo-gtk2/glade.ksh
gtk-server-2.4.4/demo-gtk2/glade.glade
gtk-server-2.4.4/demo-gtk2/dict.awk
gtk-server-2.4.4/demo-gtk2/demo-udp.awk
gtk-server-2.4.4/demo-gtk2/demo-tcp.clisp
gtk-server-2.4.4/demo-gtk2/demo-tcp.bash
gtk-server-2.4.4/demo-gtk2/demo-tcp.awk
gtk-server-2.4.4/demo-gtk2/demo-stdin.tcl
gtk-server-2.4.4/demo-gtk2/demo-stdin.pl
gtk-server-2.4.4/demo-gtk2/demo-stdin.lsp
gtk-server-2.4.4/demo-gtk2/demo-stdin.ksh
gtk-server-2.4.4/demo-gtk2/demo-stdin.clisp
gtk-server-2.4.4/demo-gtk2/demo-stdin.awk
gtk-server-2.4.4/demo-gtk2/demo-sock.lsp
gtk-server-2.4.4/demo-gtk2/demo-sock.bash
gtk-server-2.4.4/demo-gtk2/demo-lib.pl
gtk-server-2.4.4/demo-gtk2/demo-lib.lsp
gtk-server-2.4.4/demo-gtk2/demo-ipc.yab
gtk-server-2.4.4/demo-gtk2/demo-ipc.lsp
gtk-server-2.4.4/demo-gtk2/demo-ipc.ksh
gtk-server-2.4.4/demo-gtk2/demo-ipc.bash
gtk-server-2.4.4/demo-gtk2/demo-ipc.awk
gtk-server-2.4.4/demo-gtk2/demo-fifo.pl
gtk-server-2.4.4/demo-gtk2/demo-fifo.lsp
gtk-server-2.4.4/demo-gtk2/demo-fifo.ksh
gtk-server-2.4.4/demo-gtk2/demo-fifo.csh
gtk-server-2.4.4/demo-gtk2/demo-fifo.bash
gtk-server-2.4.4/demo-gtk2/demo-fifo.awk
gtk-server-2.4.4/demo-gtk2/converter.glade
gtk-server-2.4.4/demo-gtk2/converter.bash
gtk-server-2.4.4/demo-gtk2/clock.ksh
gtk-server-2.4.4/demo-gtk2/clock.bash
gtk-server-2.4.4/demo-gtk2/gtksheet.bash
gtk-server-2.4.4/demo-gtk3/
gtk-server-2.4.4/demo-gtk3/webkit.bash
gtk-server-2.4.4/demo-gtk3/clock.ksh
gtk-server-2.4.4/demo-gtk3/demo-fifo.m4
gtk-server-2.4.4/demo-gtk3/poppler.ksh
gtk-server-2.4.4/demo-gtk3/poppler.bash
gtk-server-2.4.4/demo-gtk3/noconfig.ksh
gtk-server-2.4.4/demo-gtk3/noconfig.bash
gtk-server-2.4.4/demo-gtk3/lists.ksh
gtk-server-2.4.4/demo-gtk3/lists.bash
gtk-server-2.4.4/demo-gtk3/dict.awk
gtk-server-2.4.4/demo-gtk3/demo-tcp.awk
gtk-server-2.4.4/demo-gtk3/demo-stdin.ksh
gtk-server-2.4.4/demo-gtk3/demo-stdin.awk
gtk-server-2.4.4/demo-gtk3/demo-fifo.bash
gtk-server-2.4.4/demo-gtk3/demo-ipc.m4
gtk-server-2.4.4/demo-gtk3/demo-fifo.awk
gtk-server-2.4.4/demo-gtk3/clock.bash
gtk-server-2.4.4/demo-hug-gtk2/
gtk-server-2.4.4/demo-hug-gtk2/hug.txt
gtk-server-2.4.4/demo-hug-gtk2/hug-test2.ksh
gtk-server-2.4.4/demo-hug-gtk2/hug-test1.ksh
gtk-server-2.4.4/demo-hug-gtk2/hug-test2.bash
gtk-server-2.4.4/demo-hug-gtk2/hug-test1.bash
gtk-server-2.4.4/demo-hug-gtk2/tetris.ksh
gtk-server-2.4.4/demo-hug-gtk2/tetris.bash
gtk-server-2.4.4/demo-hug-gtk2/gdf.ksh
gtk-server-2.4.4/demo-hug-gtk2/gdf.bash
gtk-server-2.4.4/demo-hug-gtk2/tetris.sock
gtk-server-2.4.4/demo-hug-gtk2/tetris.mid
gtk-server-2.4.4/demo-hug-gtk3/
gtk-server-2.4.4/demo-hug-gtk3/radio.png
gtk-server-2.4.4/demo-hug-gtk3/radio.ksh
gtk-server-2.4.4/demo-hug-gtk3/radio.bash
gtk-server-2.4.4/demo-hug-gtk3/hug.txt
gtk-server-2.4.4/demo-hug-gtk3/hug-test2.ksh
gtk-server-2.4.4/demo-hug-gtk3/hug-test2.bash
gtk-server-2.4.4/demo-hug-gtk3/hug-test1.ksh
gtk-server-2.4.4/demo-hug-gtk3/hug-test1.bash
gtk-server-2.4.4/demo-hug-gtk3/gdf.ksh
gtk-server-2.4.4/demo-hug-gtk3/gdf.bash
gtk-server-2.4.4/demo-hug-gtk3/tetris.ksh
gtk-server-2.4.4/demo-hug-gtk3/tetris.bash
gtk-server-2.4.4/demo-hug-gtk3/tetris.mid
gtk-server-2.4.4/demo-motif/
gtk-server-2.4.4/demo-motif/button.ksh
gtk-server-2.4.4/demo-motif/demo-stdin.ksh
gtk-server-2.4.4/demo-motif/base64.bash
gtk-server-2.4.4/demo-other/
gtk-server-2.4.4/demo-other/mikmod.m4
gtk-server-2.4.4/demo-other/welcome.mod
gtk-server-2.4.4/demo-other/ncurses.gtkserver
gtk-server-2.4.4/demo-other/mikmod.ksh
gtk-server-2.4.4/demo-other/mikmod.gtkserver
gtk-server-2.4.4/demo-other/mikmod.bash
gtk-server-2.4.4/demo-xf/
gtk-server-2.4.4/demo-xf/openglxf.ksh
gtk-server-2.4.4/demo-xf/openglxf.bash
gtk-server-2.4.4/demo-xf/demo-stdin.ksh
gtk-server-2.4.4/demo-xf/demo-lib.lsp
gtk-server-2.4.4/demo-xf/demo-fifo.bash
gtk-server-2.4.4/demo-xf/clock.ksh
gtk-server-2.4.4/demo-xf/clock.bash
gtk-server-2.4.4/documentation/
gtk-server-2.4.4/documentation/stop-gtk-server.1
gtk-server-2.4.4/documentation/gtk-server.cfg.1.html
gtk-server-2.4.4/documentation/gtk-server.1.html
gtk-server-2.4.4/documentation/Hints.Solaris
gtk-server-2.4.4/documentation/Hints.MacOSX
gtk-server-2.4.4/documentation/Hints.Linux
gtk-server-2.4.4/documentation/GTK-server_Tutorial.html
gtk-server-2.4.4/documentation/GTK-server_Manual.html
gtk-server-2.4.4/documentation/GPL.txt
gtk-server-2.4.4/documentation/gtk-server.1
gtk-server-2.4.4/documentation/gtk-server.cfg.1
gtk-server-2.4.4/INSTALL
gtk-server-2.4.4/ksh93/
gtk-server-2.4.4/ksh93/demo-lib.ksh
gtk-server-2.4.4/ksh93/GTK_SERVER_README.1ST
gtk-server-2.4.4/README.1ST
gtk-server-2.4.4/scriptbasic/
gtk-server-2.4.4/scriptbasic/openglext.sb
gtk-server-2.4.4/scriptbasic/gtk.bas
gtk-server-2.4.4/scriptbasic/go.bas
gtk-server-2.4.4/scriptbasic/generate.sb
gtk-server-2.4.4/scriptbasic/embedded.sb
gtk-server-2.4.4/scriptbasic/doc.html
gtk-server-2.4.4/scriptbasic/dictionary.sb
gtk-server-2.4.4/scriptbasic/demo.sb
gtk-server-2.4.4/scriptbasic/GTK_SERVER_README.1ST
gtk-server-2.4.4/s-lang/
gtk-server-2.4.4/s-lang/demo-lib.sl
gtk-server-2.4.4/s-lang/GTK_SERVER_README.1ST
gtk-server-2.4.4/src/
gtk-server-2.4.4/src/configure.in
gtk-server-2.4.4/src/uthash.h
gtk-server-2.4.4/src/install-sh
gtk-server-2.4.4/src/gtk-server.spec
gtk-server-2.4.4/src/generate_config_file
gtk-server-2.4.4/src/configure
gtk-server-2.4.4/src/config.sub
gtk-server-2.4.4/src/config.h.in
gtk-server-2.4.4/src/config.guess
gtk-server-2.4.4/src/Makefile.in
gtk-server-2.4.4/src/select-gtk-server
gtk-server-2.4.4/src/stop-gtk-server
gtk-server-2.4.4/src/gtk-server.cfg
gtk-server-2.4.4/src/gtk-server.c
checking for gcc... gcc
checking whether the C compiler works... yes
checking for C compiler default output file name... a.out
checking for suffix of executables... 
checking whether we are cross compiling... no
checking for suffix of object files... o
checking whether we are using the GNU C compiler... yes
checking whether gcc accepts -g... yes
checking for gcc option to accept ISO C89... none needed
checking for a BSD-compatible install... /usr/bin/ginstall -c
checking build system type... i686-pc-linux-gnu
checking host system type... i686-pc-linux-gnu
checking for malloc... yes
checking for memcpy... yes
checking for memset... yes
checking for realloc... yes
checking for setlocale... yes
checking for snprintf... yes
checking for strcat... yes
checking for strcmp... yes
checking for strcpy... yes
checking for strncmp... yes
checking for strstr... yes
checking for strtok... yes
checking for atexit... yes
checking for bind... yes
checking for connect... yes
checking for fork... yes
checking for gethostbyname... yes
checking for getpid... yes
checking for getsockopt... yes
checking for inet_ntoa... yes
checking for mkfifo... yes
checking for msgctl... yes
checking for msgget... yes
checking for msgrcv... yes
checking for recv... yes
checking for setsockopt... yes
checking for socket... yes
checking for library containing dlopen... -ldl
checking for library containing dlsym... none required
checking how to run the C preprocessor... gcc -E
checking for grep that handles long lines and -e... /bin/grep
checking for egrep... /bin/grep -E
checking for ANSI C header files... yes
checking for sys/types.h... yes
checking for sys/stat.h... yes
checking for stdlib.h... yes
checking for string.h... yes
checking for memory.h... yes
checking for strings.h... yes
checking for inttypes.h... yes
checking for stdint.h... yes
checking for unistd.h... yes
checking errno.h usability... yes
checking errno.h presence... yes
checking for errno.h... yes
checking locale.h usability... yes
checking locale.h presence... yes
checking for locale.h... yes
checking stdio.h usability... yes
checking stdio.h presence... yes
checking for stdio.h... yes
checking for stdlib.h... (cached) yes
checking for string.h... (cached) yes
checking arpa/inet.h usability... yes
checking arpa/inet.h presence... yes
checking for arpa/inet.h... yes
checking ctype.h usability... yes
checking ctype.h presence... yes
checking for ctype.h... yes
checking fcntl.h usability... yes
checking fcntl.h presence... yes
checking for fcntl.h... yes
checking netdb.h usability... yes
checking netdb.h presence... yes
checking for netdb.h... yes
checking signal.h usability... yes
checking signal.h presence... yes
checking for signal.h... yes
checking sys/ipc.h usability... yes
checking sys/ipc.h presence... yes
checking for sys/ipc.h... yes
checking sys/msg.h usability... yes
checking sys/msg.h presence... yes
checking for sys/msg.h... yes
checking sys/socket.h usability... yes
checking sys/socket.h presence... yes
checking for sys/socket.h... yes
checking for sys/stat.h... (cached) yes
checking for sys/types.h... (cached) yes
checking sys/utsname.h usability... yes
checking sys/utsname.h presence... yes
checking for sys/utsname.h... yes
checking sys/wait.h usability... yes
checking sys/wait.h presence... yes
checking for sys/wait.h... yes
checking for unistd.h... (cached) yes
checking for pkg-config... /usr/bin/pkg-config
checking for SSL_library_init in -lssl... no
checking ffi.h usability... yes
checking ffi.h presence... yes
checking for ffi.h... yes
configure: creating ./config.status
config.status: creating Makefile
config.status: creating config.h

---------------------------------
Configured options for GTK-server
---------------------------------

 - Use GTK 1.x backend: NO
 - Use GTK 2.x backend: YES
 - Use GTK 3.x backend: NO
 - Use XForms backend: NO
 - Use Motif backend: NO
 - Use console backend: NO
 - Library support for Scriptbasic: NO
 - Library support for S-Lang: NO
 - Library support for Kornshell93: NO
 - Statically link: NO
 - Support for SSL: NO

The GTK-server will be built with gcc using the Foreign Function Interface (FFI).

Now run 'make' and 'make install' to build and install the GTK-server.

rm -f gtk-server-gtk2 libgtk-server-gtk2.so *.a *.o *.log so_locations
gcc -DGTK_SERVER_GTK2x -DGTK_SERVER_LIBRARY -shared -Wall -pedantic -O2 -march=i686 -mtune=i686  -DHAVE_CONFIG_H -DLOCALCFG=\"/etc/gtk-server.cfg\" -pthread -I/usr/include/gtk-2.0 -I/usr/lib/gtk-2.0/include -I/usr/include/atk-1.0 -I/usr/include/cairo -I/usr/include/gdk-pixbuf-2.0 -I/usr/include/pango-1.0 -I/usr/include/glib-2.0 -I/usr/lib/glib-2.0/include -I/usr/include/pixman-1 -I/usr/include/freetype2 -I/usr/include/libpng14   -o libgtk-server-gtk2.so gtk-server.c -lgtk-x11-2.0 -lgdk-x11-2.0 -latk-1.0 -lgio-2.0 -lpangoft2-1.0 -lpangocairo-1.0 -lgdk_pixbuf-2.0 -lcairo -lpango-1.0 -lfreetype -lfontconfig -lgobject-2.0 -lglib-2.0   -export-dynamic  -lffi -ldl
gtk-server.c: In function 'Call_Realize':
gtk-server.c:5276:1: warning: 'retstr' may be used uninitialized in this function [-Wmaybe-uninitialized]
gtk-server.c:4182:9: warning: 'i' may be used uninitialized in this function [-Wmaybe-uninitialized]
gtk-server.c:3794:21: warning: 'Body_Last' may be used uninitialized in this function [-Wmaybe-uninitialized]
gcc -DGTK_SERVER_GTK2x -Wall -pedantic -O2 -march=i686 -mtune=i686  -DHAVE_CONFIG_H -DLOCALCFG=\"/etc/gtk-server.cfg\" -pthread -I/usr/include/gtk-2.0 -I/usr/lib/gtk-2.0/include -I/usr/include/atk-1.0 -I/usr/include/cairo -I/usr/include/gdk-pixbuf-2.0 -I/usr/include/pango-1.0 -I/usr/include/glib-2.0 -I/usr/lib/glib-2.0/include -I/usr/include/pixman-1 -I/usr/include/freetype2 -I/usr/include/libpng14   -o gtk-server-gtk2 gtk-server.c -lgtk-x11-2.0 -lgdk-x11-2.0 -latk-1.0 -lgio-2.0 -lpangoft2-1.0 -lpangocairo-1.0 -lgdk_pixbuf-2.0 -lcairo -lpango-1.0 -lfreetype -lfontconfig -lgobject-2.0 -lglib-2.0    -export-dynamic  -lffi -ldl
gtk-server.c: In function 'Call_Realize':
gtk-server.c:5276:1: warning: 'retstr' may be used uninitialized in this function [-Wmaybe-uninitialized]
gtk-server.c:4182:9: warning: 'i' may be used uninitialized in this function [-Wmaybe-uninitialized]
gtk-server.c:3794:21: warning: 'Body_Last' may be used uninitialized in this function [-Wmaybe-uninitialized]
gtk-server.c: In function 'main':
gtk-server.c:6192:21: warning: 'Body_Last' may be used uninitialized in this function [-Wmaybe-uninitialized]
strip gtk-server-gtk2
mkdir -p /usr/bin
/usr/bin/ginstall -c gtk-server-gtk2 /usr/bin
mkdir -p /usr/lib
/usr/bin/ginstall -c libgtk-server-gtk2.so /usr/lib
ln -sf /usr/bin/gtk-server-gtk2 /usr/bin/gtk-server
ln -sf /usr/lib/libgtk-server-gtk2.so /usr/lib/libgtk-server.so
/usr/bin/ginstall -c stop-gtk-server /usr/bin
/usr/bin/ginstall -c select-gtk-server /usr/bin
mkdir -p /etc
Creating GTK-server configfile... done.
mkdir -p /usr/share/man/man1
/usr/bin/ginstall -c -m 644 ../documentation/gtk-server.1 /usr/share/man/man1
/usr/bin/ginstall: cannot stat '../documentation/gtk-server.1': No such file or directory
make: *** [install] Error 1
/root/share/petbuilds-out/pkgs/gtk-server
mkdir -p /root/share/petbuilds-out/pkgs/gtk-server/gtk-server-install/usr/bin
/usr/bin/ginstall -c gtk-server-gtk2 /root/share/petbuilds-out/pkgs/gtk-server/gtk-server-install/usr/bin
mkdir -p /root/share/petbuilds-out/pkgs/gtk-server/gtk-server-install/usr/lib
/usr/bin/ginstall -c libgtk-server-gtk2.so /root/share/petbuilds-out/pkgs/gtk-server/gtk-server-install/usr/lib
ln -sf /root/share/petbuilds-out/pkgs/gtk-server/gtk-server-install/usr/bin/gtk-server-gtk2 /root/share/petbuilds-out/pkgs/gtk-server/gtk-server-install/usr/bin/gtk-server
ln -sf /root/share/petbuilds-out/pkgs/gtk-server/gtk-server-install/usr/lib/libgtk-server-gtk2.so /root/share/petbuilds-out/pkgs/gtk-server/gtk-server-install/usr/lib/libgtk-server.so
/usr/bin/ginstall -c stop-gtk-server /root/share/petbuilds-out/pkgs/gtk-server/gtk-server-install/usr/bin
/usr/bin/ginstall -c select-gtk-server /root/share/petbuilds-out/pkgs/gtk-server/gtk-server-install/usr/bin
mkdir -p /root/share/petbuilds-out/pkgs/gtk-server/gtk-server-install/etc
Creating GTK-server configfile... done.
/root/share/petbuilds-out/pkgs/gtk-server
Processing ../gtk-server-install/etc/gtk-server.cfg
Processing ../gtk-server-install/usr/bin/gtk-server
Processing ../gtk-server-install/usr/bin/gtk-server-gtk2
Processing ../gtk-server-install/usr/bin/select-gtk-server
Processing ../gtk-server-install/usr/bin/stop-gtk-server
Processing ../gtk-server-install/usr/lib/libgtk-server-gtk2.so
Processing ../gtk-server-install/usr/lib/libgtk-server.so
all done
packaging gtk-server-2.4.4-i686_common32
done!
